#
## Alias OBJ Material File
# Exported from SketchUp, (c) 2000-2012 Trimble Navigation Limited

newmtl Stone_Flagstone_Ashlar
Ka 0.000000 0.000000 0.000000
Kd 0.686275 0.454902 0.400000
Ks 0.330000 0.330000 0.330000
map_Kd block/Stone_Flagstone_Ashlar.jpg

